,Matrix,gflops_csr5,gflops_sell,n_rows,n_cols,nnz_tot,nnz_frac,nnz_min,nnz_max,nnz_mu,nnz_sig,var,k_average,k_histogram,k_best,GFlops,speedup_hyb5_csr5,speedup_hyb5_sell,,scatter_x
637,vsp_bcsstk30,14.9376,24.9482,58348,58348,4033156,0.001184658,0,219,69.12243779,32.16167706,1034.37,69,155,177,30.0982,2.01492877,1.206427718,,1
926,road_usa,7.6991,7.90168,23947347,23947347,57708624,1.01E-07,1,9,2.409812828,0.92898969,0.863022,2,7,24,15.2749,1.983985141,1.933120552,,2
867,coPapersCiteseer,19.9586,11.8338,434102,434102,32073440,0.000170201,1,1188,73.88457091,101.2783505,10257.3,73,1161,61,37.8002,1.893930436,3.194257128,,3
724,matrix-new_3,20.7655,8.94443,125329,125329,2678750,0.000170541,12,9358,21.37374431,42.77181824,1829.43,21,9337,32,37.9965,1.829789796,4.248062761,,4
621,ins2,7.51772,0.728611,309412,309412,2751484,2.87E-05,5,309412,8.892622135,590.3552878,348519,8,309406,6,13.1336,1.747019043,18.02553077,,5
754,rajat21,15.9107,1.69178,411676,411676,1893370,1.12E-05,1,118689,4.599175079,188.7726632,35635.1,4,118685,14,26.8563,1.687939563,15.8745818,,6
710,delaunay_n20,9.76163,7.25291,1048576,1048576,6291372,5.72E-06,3,23,5.999919891,1.336638326,1.7866,5,17,21,16.448,1.684964499,2.267779415,,7
628,delaunay_n19,10.1966,11.5954,524288,524288,3145646,1.14E-05,3,21,5.999843597,1.338351018,1.79118,5,15,27,16.7322,1.640958751,1.44300326,,8
699,xenon1,22.7138,31.5313,48600,48600,1181120,0.000500059,1,27,24.30288066,4.250953891,18.0706,24,0,50,36.91,1.625003302,1.170582881,,9
812,G3_circuit,14.9188,10.7766,1585478,1585478,7660826,3.05E-06,2,6,4.831871524,0.641881137,0.412011,4,1,5,23.9775,1.607200311,2.224959635,,10
283,vsp_vibrobox,10.0135,5.04521,77328,77328,871172,0.00014569,1,669,11.26593213,21.16897821,448.126,11,665,4,15.8395,1.58181455,3.139512528,,11
470,delaunay_n18,10.1799,11.5043,262144,262144,1572792,2.29E-05,3,21,5.999725342,1.341115781,1.79859,5,15,38,15.9674,1.568522284,1.387950592,,12
670,web-Stanford,8.3034,10.8552,281903,281903,2312497,2.91E-05,0,255,8.203165628,11.31140641,127.948,8,251,16,12.919,1.55586868,1.190120864,,13
525,144,11.1916,10.6424,144649,144649,2148786,0.000102698,4,26,14.85517356,2.718314198,7.38923,14,12,32,16.8532,1.50587941,1.583590168,,14
727,helm2d03,9.45495,9.9815,392257,392257,2741935,1.78E-05,4,9,6.990149315,0.141752631,0.0200938,6,2,8,14.1337,1.494846615,1.415989581,,15
725,TSOPF_FS,26.1185,2.2588,120216,120216,3121160,0.000215969,1,60024,25.96293339,548.1836873,300505,25,60020,44,39.0145,1.493749641,17.27222419,,16
631,m14b,10.6267,11.5252,214765,214765,3358036,7.28E-05,4,40,15.63586245,3.131182256,9.8043,15,25,46,15.8025,1.487056189,1.371125881,,17
798,delaunay,10.6906,7.56699,2097152,2097152,12582816,2.86E-06,3,23,5.999954224,1.336354686,1.78584,5,17,26,15.8175,1.479570838,2.09032918,,18
853,333SP,6.97559,5.48901,3712815,3712815,22217266,1.61E-06,2,28,5.983941026,0.70296052,0.494153,5,22,15,10.1961,1.461682811,1.857548082,,19
636,language,10.0523,2.54604,399130,399130,1216334,7.64E-06,1,11555,3.047463233,20.71000311,428.904,3,11553,3,14.3945,1.431960845,5.653681796,,20
464,coAuthorsCiteseer,10.9648,6.52228,227320,227320,1628268,3.15E-05,1,1372,7.162889319,10.63371503,113.076,7,1369,7,15.6564,1.427878301,2.400448923,,21
643,sparsine,17.5027,15.3749,50000,50000,1548988,0.000619595,6,56,30.97976,11.1545269,124.423,30,35,58,24.7838,1.415998674,1.611964956,,22
933,TSOPF_RS,38.457,37.0498,38120,38120,16171169,0.011128474,2,983,424.2174449,484.237499,234486,424,979,961,53.9939,1.404007073,1.457333103,,23
509,coAuthorsDBLP,9.67996,5.60104,299067,299067,1955352,2.19E-05,1,336,6.53817372,9.815236643,96.3389,6,333,10,13.5318,1.397919,2.415944182,,24
928,memchip,13.8932,8.88774,2707524,2707524,14810202,2.02E-06,2,27,5.470016886,2.061604228,4.25021,5,23,8,19.3471,1.39255895,2.176830105,,25
694,majorbasis,32.7181,25.6432,160000,160000,1750416,6.84E-05,6,11,10.9401,0.420846754,0.177112,10,0,11,45.4654,1.389610032,1.77300025,,26
693,crashbasis,33.3413,25.1371,160000,160000,1750416,6.84E-05,6,11,10.9401,0.420846754,0.177112,10,0,13,46.0636,1.381577803,1.8324946,,27
282,delaunay,11.3144,10.7301,131072,131072,786352,4.58E-05,3,17,5.999389648,1.344550177,1.80782,5,11,20,15.5713,1.376237361,1.451179393,,28
331,Andrews,11.5175,10.863,60000,60000,760154,0.000211154,9,36,12.66923333,3.414448723,11.6585,12,25,34,15.8365,1.374994573,1.457838534,,29
765,parabolic_fem,17.3331,20.9499,525825,525825,3674625,1.33E-05,3,7,6.988304094,0.152633082,0.0232969,6,0,7,23.784,1.372172318,1.135279882,,30
932,TSOPF_RS_b2383,39.3938,35.5078,38120,38120,16171169,0.011128474,2,983,424.2174449,484.237499,234486,424,979,981,53.8142,1.366057603,1.515559961,,31
629,roadNet-PA,16.1455,10.7044,1090920,1090920,3083796,2.59E-06,0,9,2.826784732,1.025784325,1.05223,2,6,30,21.9487,1.359431421,2.050437203,,32
707,CurlCurl_1,28.745,43.5245,226451,226451,2472071,4.82E-05,4,13,10.9165824,1.024196538,1.04898,10,2,13,38.9303,1.354332927,0.894445657,,33
759,rajat24,17.241,1.88048,358172,358172,1948235,1.52E-05,1,105296,5.439383871,180.1159959,32441.8,5,105292,6,23.3322,1.353297373,12.40757679,,34
378,caidaRouterLevel,7.88435,3.31463,192244,192244,1218132,3.30E-05,1,1071,6.336385011,14.13997134,199.939,6,1069,10,10.6387,1.349343954,3.209619173,,35
431,598a,10.9511,10.1907,110971,110971,1483868,0.000120497,5,26,13.37167368,2.915061461,8.49758,13,13,8,14.7649,1.348257253,1.448860235,,36
938,circuit5M_dc,13.6322,8.71906,3523317,3523317,19194193,1.55E-06,1,27,5.447762151,2.090861468,4.3717,5,23,48,18.2976,1.342233829,2.098574846,,37
537,debr_G_17,24.2445,14.5232,524288,524288,2097146,7.63E-06,2,4,3.999988556,0.004367305,1.91E-05,3,0,8,32.5139,1.341083545,2.238755922,,38
608,turon_m,27.7193,26.8686,189924,189924,1690876,4.69E-05,1,11,8.902908532,2.761943811,7.62833,8,1,12,37.1621,1.340657953,1.383105186,,39
311,preferentialAttachment,9.66155,1.47055,100000,100000,999970,1.00E-04,5,983,9.9997,15.5453916,241.659,9,977,8,12.9028,1.335479297,8.774132127,,40
601,d_pretok,28.8013,24.8218,182730,182730,1641672,4.92E-05,2,11,8.984140535,2.749461064,7.55954,8,1,11,38.1784,1.325579054,1.538099574,,41
860,NLR,6.62492,4.27237,4163763,4163763,24975952,1.44E-06,3,20,5.998408651,0.841930883,0.708848,5,14,10,8.70546,1.314047566,2.037618465,,42
861,delaunay_n22,11.6373,7.37226,4194304,4194304,25165738,1.43E-06,3,23,5.999979496,1.336383054,1.78592,5,17,38,15.2751,1.312598283,2.071969789,,43
833,rajat29,26.5192,1.11634,643994,643994,4866270,1.17E-05,1,454521,7.556390277,773.9266774,598963,7,454516,18,34.7591,1.310714501,31.13666087,,44
848,M6,6.4937,8.86761,3501776,3501776,21003872,1.71E-06,3,10,5.998062697,0.844716284,0.713546,5,4,13,8.50531,1.309778709,0.959143445,,45
686,H2O,28.9769,26.5553,67024,67024,2216736,0.000493462,14,37,33.07376462,4.801060367,23.0502,33,4,40,37.8929,1.30769337,1.426943021,,46
761,ASIC_680ks,15.2234,16.5488,682712,682712,2329176,5.00E-06,1,210,3.411652351,4.252868164,18.0869,3,208,3,19.9075,1.307690792,1.202957314,,47
359,vsp_finan512_scagr7-2c_rlfddd,13.222,3.35254,139752,139752,1104040,5.65E-05,1,669,7.899994276,15.17126462,230.167,7,664,7,17.2506,1.304689154,5.145531448,,48
850,thermal2,15.3494,8.62652,1228045,1228045,8580313,5.69E-06,1,11,6.986969533,0.811403788,0.658376,6,4,11,19.9774,1.301510157,2.31581217,,49
532,lp1,19.4488,0.778762,534388,534388,1643420,5.75E-06,2,249643,3.075331033,341.4987945,116621,3,249641,12,25.2834,1.299997943,32.46614498,,50
918,delaunay_n23,11.8623,7.15533,8388608,8388608,50331568,7.15E-07,3,28,5.999990463,1.335997641,1.78489,5,22,17,15.3872,1.29715148,2.150452879,,51
650,mario002,12.0415,12.0344,389874,389874,2101242,1.38E-05,2,7,5.389541236,1.964505459,3.85928,5,4,7,15.5073,1.287821285,1.288581068,,52
756,Dubcova3,17.6109,14.6357,146689,146689,3636649,0.000169008,9,49,24.79155901,10.18344602,103.703,24,33,23,22.6582,1.286600912,1.548145972,,53
692,netherlands_osm,14.773,10.789,2216688,2216688,4882476,9.94E-07,1,7,2.202599554,0.581561545,0.338214,2,5,23,18.998,1.28599472,1.76086755,,54
952,delaunay_n24,11.9029,10.0669,16777216,16777216,100663202,3.58E-07,3,26,5.999994397,1.335779995,1.78431,5,20,20,15.2694,1.282830235,1.516792657,,55
801,rgg_n_2_20_s0,35.8472,23.3572,1048576,1048576,13783240,1.25E-05,0,36,13.14472198,3.628256046,13.1642,13,24,44,45.9441,1.281664956,1.967020876,,56
889,ohne2,35.4601,40.7423,181343,181343,11063545,0.000336428,15,3441,61.00894438,21.08519272,444.585,61,3387,88,45.4355,1.281313363,1.115192319,,57
620,rgg_n_2_18_s0,31.5772,24.149,262144,262144,3094566,4.50E-05,0,31,11.80483246,3.448548937,11.8925,11,20,36,40.4518,1.281044551,1.675092136,,58
855,AS365,6.7647,8.69871,3799275,3799275,22736152,1.58E-06,2,14,5.984339644,0.8654958,0.749083,5,8,34,8.66469,1.280868331,0.996089075,,59
616,pa2010,14.7033,18.4387,421545,421545,2058462,1.16E-05,1,64,4.883137032,2.631840929,6.92659,4,60,67,18.7987,1.278536111,1.019524153,,60
970,cage15,26.4356,30.9749,5154859,5154859,99199551,3.73E-06,3,47,19.24389222,5.736719369,32.9099,19,30,16,33.7299,1.275927159,1.088942983,,61
649,darcy003,12.288,12.3629,389874,389874,2101242,1.38E-05,2,7,5.389541236,1.964505459,3.85928,5,4,7,15.6226,1.271370443,1.26366791,,62
777,poisson3Db,15.472,10.7449,85623,85623,2374949,0.000323947,6,145,27.73727854,14.71205354,216.445,27,122,23,19.5469,1.263372544,1.819179332,,63
79,wing,6.75244,7.01425,62032,62032,243088,6.32E-05,2,4,3.918751612,0.278012381,0.0772909,3,0,7,8.5294,1.263158207,1.216010265,,64
702,oilpan,35.0945,37.0802,73752,73752,3597188,0.000661326,28,70,48.77410782,13.49061929,181.997,48,35,74,44.1373,1.257670005,1.190319901,,65
821,flickr,9.10432,1.39176,820878,820878,9837214,1.46E-05,0,10272,11.98377104,87.72737973,7696.09,11,10271,13,11.4253,1.254931725,8.209245847,,66
800,sme3Dc,24.4082,21.4922,42930,42930,3148656,0.001708455,24,405,73.34395528,36.98370375,1367.79,73,348,69,30.5695,1.252427463,1.422353226,,67
820,FEM_3D_thermal2,34.893,42.293,147900,147900,3489300,0.000159515,12,27,23.59229209,4.480983192,20.0792,23,0,30,43.6163,1.250001433,1.031288866,,68
757,apache2,30.9831,40.9855,715176,715176,4817870,9.42E-06,4,8,6.736621475,0.448098008,0.200792,6,1,9,38.6978,1.248997034,0.944182699,,69
843,torso3,32.0945,13.3567,259156,259156,4429042,6.59E-05,7,22,17.09025452,4.392310468,19.2924,17,3,19,40.0818,1.248868186,3.000875965,,70
955,cage14,28.4236,33.048,1505785,1505785,27130349,1.20E-05,5,41,18.01741218,5.367828233,28.8136,18,25,22,35.4413,1.246896945,1.072418906,,71
837,TSOPF_RS_b300_c3,30.7557,36.823,42138,42138,4413449,0.002485594,1,209,104.73798,102.4431672,10494.6,104,205,185,38.047,1.237071502,1.033240095,,72
748,cant,37.4522,48.7405,62451,62451,4007383,0.001027501,1,78,64.16843605,14.05626099,197.578,64,24,83,46.3281,1.236992753,0.950505227,,73
272,email-EuAll,7.63718,0.756774,265214,265214,420045,5.97E-06,0,930,1.583796481,9.983983721,99.6799,1,929,4,9.43921,1.235954894,12.47295758,,74
827,xenon2,34.9927,45.729,157464,157464,3866688,0.000155947,1,27,24.5560128,4.06885965,16.5556,24,0,43,43.2032,1.234634652,0.944765903,,75
592,srb1,36.1238,26.0093,54924,54924,2962152,0.000981936,36,270,53.93183308,4.902250354,24.0321,53,216,218,44.5436,1.233081791,1.7126028,,76
500,boyd1,22.6398,1.04528,93279,93279,1211231,0.000139206,3,93261,12.98503414,653.397365,426928,12,93254,10,27.8444,1.22988719,26.63822134,,77
677,Lin,31.2637,38.1585,256000,256000,1766400,2.70E-05,4,7,6.9,0.310241841,0.09625,6,0,7,38.4,1.22826153,1.006328865,,78
769,offshore,21.32,29.5243,259789,259789,4242673,6.29E-05,5,31,16.3312265,2.812150778,7.90819,16,15,32,26.1088,1.224615385,0.884315632,,79
623,il2010,12.7697,15.0346,451554,451554,2164464,1.06E-05,1,90,4.793366906,2.297356027,5.27784,4,86,74,15.6279,1.223826715,1.039462307,,80
657,roadNet-TX,17.2346,22.0493,1393383,1393383,3843320,1.98E-06,0,12,2.758265315,1.037025213,1.07542,2,9,17,21.0593,1.221919859,0.955100615,,81
931,hugebubbles-00020,6.98417,9.48411,21198119,21198119,63580358,1.41E-07,2,3,2.999339611,0.025689544,0.000659953,2,0,21,8.52626,1.22079789,0.899004756,,82
869,adaptive,19.3803,23.1809,6815744,6815744,27248640,5.87E-07,2,4,3.997896635,0.045827012,0.00210011,3,0,9,23.5409,1.214681919,1.015530027,,83
703,roadNet-CA,17.1042,31.0745,1971281,1971281,5533214,1.42E-06,0,12,2.806912865,1.005277919,1.01058,2,9,12,20.7625,1.21388314,0.668152344,,84
325,G_n_pin_pout,12.5299,11.1918,100000,100000,1002396,0.00010024,0,25,10.02396,3.171275125,10.057,10,16,28,15.1878,1.212124598,1.357047124,,85
916,gsm_106857,15.0425,7.83192,589446,589446,21758924,6.26E-05,12,106,36.91419401,15.63206018,244.361,36,76,21,18.2236,1.211474157,2.326836842,,86
825,great-britain_osm,15.8149,9.47099,7733822,7733822,16313034,2.73E-07,1,8,2.109310765,0.543375643,0.295257,2,6,7,19.1355,1.209966551,2.020432922,,87
824,CO,32.7609,47.0876,221119,221119,7666057,0.000156791,15,313,34.6693726,7.040433943,49.5677,34,276,278,39.6179,1.209304384,0.84136588,,88
683,kron_g500-logn16,20.2576,11.05,65536,65536,4912469,0.001143773,0,17998,74.95832825,312.5048364,97659.3,74,17994,56,24.4401,1.206465722,2.211773756,,89
959,rgg_n_2_23_s0,30.0137,20.3382,8388608,8388608,127002786,1.80E-06,0,40,15.13991189,3.894705294,15.1687,15,26,29,36.1471,1.204353345,1.777300843,,90
603,pkustk03,34.9767,38.9482,63336,63336,3130416,0.00078037,12,90,49.42553998,11.80315882,139.315,49,36,75,42.019,1.201342608,1.078843181,,91
902,msdoor,37.6226,46.2638,415863,415863,20240935,0.000117039,28,77,48.67212279,11.71001845,137.125,48,35,72,45.1303,1.199552928,0.975499202,,92
704,cfd2,36.5432,48.6566,123440,123440,3087898,0.000202652,8,30,25.01537589,3.860279323,14.9018,25,3,31,43.8,1.198581405,0.900186203,,93
731,venkat25,37.7537,35.6043,62424,62424,1717792,0.000440826,16,44,27.51813405,2.293703779,5.26108,27,16,46,45.2051,1.197368735,1.269652823,,94
684,c-big,14.9109,8.06682,345241,345241,2341011,1.96E-05,2,19578,6.780802396,36.44413362,1328.17,6,19575,6,17.8024,1.193918543,2.206867142,,95
714,rgg_n_2_19_s0,36.2301,47.0921,524288,524288,6539532,2.38E-05,0,30,12.47316742,3.543450678,12.556,12,19,28,43.1652,1.191418185,0.91661234,,96
671,TSOPF_FS_b39_c19,31.6416,2.26941,76216,76216,1977600,0.000340444,1,38024,25.94730765,436.1508493,190228,25,38020,43,37.6686,1.190477093,16.59841104,,97
822,venturiLevel3,20.5596,19.1856,4026819,4026819,16108474,9.93E-07,2,6,4.000297505,0.118263001,0.0139861,4,2,12,24.4624,1.189828596,1.275039613,,98
904,af_5_k101,45.0595,54.3804,503625,503625,17550675,6.92E-05,15,35,34.84869695,1.256580165,1.57899,34,0,35,53.5898,1.18931191,0.985461674,,99
42,as-caida_G_091,2.67511,1.75043,31379,31379,101654,0.00010324,0,2586,3.239555116,29.82213666,889.36,3,2585,14,3.17669,1.187498832,1.814805505,,100
842,hood,34.3491,36.569,220542,220542,10768436,0.000221396,21,77,48.82714404,12.8181528,164.305,48,35,66,40.7124,1.185253762,1.113303618,,101
786,barrier2-12,20.622,12.2353,115625,115625,3897557,0.000291534,8,8437,33.70860108,28.46078351,810.016,33,8410,30,24.4361,1.184952963,1.99718029,,102
851,hugetric-00020,7.24735,4.69884,7122792,7122792,21361554,4.21E-07,2,3,2.99904223,0.030933043,0.000956853,2,0,13,8.57894,1.183734744,1.825756995,,103
651,boneS01_M,36.103,28.8489,127224,127224,2238384,0.000138292,4,27,17.59403886,5.880123952,34.5759,17,11,43,42.6359,1.180951721,1.477903837,,104
910,StocF-1465,36.2787,15.0607,1465137,1465137,21005389,9.79E-06,1,189,14.33680878,2.573777201,6.62433,14,174,185,42.8244,1.180428185,2.843453492,,105
907,af_3_k101,45.4681,60.5849,503625,503625,17550675,6.92E-05,15,35,34.84869695,1.256580165,1.57899,34,0,39,53.5898,1.178624134,0.884540537,,106
455,pcrystk03,40.7251,62.3114,24696,24696,1751178,0.00287129,24,81,70.90937804,14.16240602,200.574,70,0,82,47.9775,1.178081822,0.769963442,,107
768,webbase-1M,17.5454,4.26993,1000005,1000005,3105536,3.11E-06,1,4700,3.105520472,25.34520973,642.38,3,4698,5,20.6348,1.17608034,4.832585078,,108
715,matrix_9,39.288,8.30216,103430,103430,2121550,0.000198317,12,4057,20.51194044,17.79379203,316.619,20,4036,24,46.1207,1.173913154,5.555265136,,109
834,Hamrle3,19.9791,11.6707,1447360,1447360,5514242,2.63E-06,2,6,3.809862094,1.551494333,2.40713,3,4,5,23.415,1.171974714,2.006306391,,110
953,dielFilterV2real,34.376,15.7516,1157456,1157456,48538952,3.62E-05,6,110,41.93589389,16.14858988,260.777,41,78,33,40.2145,1.169842332,2.553042231,,111
836,TSOPF_RS_b678_c1,37.0995,35.0396,18696,18696,4396289,0.012577341,2,512,235.1459671,252.7656701,63890.5,235,508,251,43.3132,1.167487432,1.236121417,,112
922,hugebubbles-00000,11.9254,15.6318,18318143,18318143,54940162,1.64E-07,2,3,2.999221155,0.02789693,0.000778239,2,0,21,13.9212,1.16735707,0.890569224,,113
780,barrier2-4,20.9646,15.5791,113076,113076,3805068,0.000297592,10,7031,33.65053592,24.93580363,621.794,33,7004,30,24.4699,1.167200901,1.570687652,,114
802,TSOPF_RS_b300_c2,32.3504,14.0199,28338,28338,2943887,0.003665918,1,209,103.8847837,102.4046036,10486.7,103,205,207,37.7421,1.166665636,2.692037746,,115
633,belgium_osm,14.9756,8.97477,1441295,1441295,3099940,1.49E-06,1,10,2.150801883,0.492694443,0.242748,2,8,32,17.4645,1.166197014,1.945955161,,116
796,thermomech_dK,20.5504,26.1849,204316,204316,2846228,6.82E-05,7,20,13.93051939,1.430513073,2.04637,13,6,24,23.9179,1.163865424,0.913423385,,117
612,Baumann,21.1286,24.2456,112211,112211,760631,6.04E-05,4,7,6.778577858,0.433105131,0.18758,6,0,10,24.5365,1.161293223,1.011998053,,118
672,transient,13.4516,1.4375,178866,178866,961790,3.01E-05,1,60423,5.377153847,147.1854846,21663.6,5,60419,5,15.5127,1.153223408,10.79144348,,119
813,hugetrace-00000,11.7542,14.075,4588484,4588484,13758266,6.53E-07,2,3,2.998433905,0.039542913,0.00156364,2,0,6,13.5283,1.150933283,0.961158082,,120
965,dielFilterV3real,34.4811,25.8016,1102824,1102824,89306020,7.34E-05,9,270,80.97939472,36.55307958,1336.13,80,195,61,39.6387,1.149577595,1.536288447,,121
417,cont-300,25.6674,16.2374,180895,180895,988195,3.02E-05,2,6,5.462809917,0.598086789,0.357708,5,1,18,29.4984,1.149255476,1.816694791,,122
844,hugetric-00010,7.41764,4.80358,6592765,6592765,19771708,4.55E-07,2,3,2.999000874,0.031593153,0.000998127,2,0,17,8.51678,1.148179205,1.773006799,,123
776,t3dh_e,38.0097,43.6579,79171,79171,4352105,0.000694332,20,81,54.97094896,14.5240721,210.949,54,30,82,43.5211,1.144999829,0.996866546,,124
323,smallworld,19.4174,15.942,100000,100000,999996,1.00E-04,5,17,9.99996,1.343383787,1.80468,9,7,17,22.2221,1.144442613,1.393934262,,125
521,thermomech_TC,11.959,10.7068,102158,102158,711558,6.82E-05,4,10,6.965269485,0.715239905,0.511568,6,3,8,13.6838,1.144226106,1.278047596,,126
711,tx2010,14.2373,8.98829,914231,914231,4456272,5.33E-06,1,121,4.874339199,3.049702474,9.30069,4,117,119,16.2638,1.142337381,1.809443176,,127
682,lhr71c,31.1856,29.8766,70304,70304,1528092,0.000309164,1,63,21.73549158,26.31874714,692.676,21,58,63,35.537,1.139532348,1.189459309,,128
644,cfd1,40.6303,36.5196,70656,70656,1828364,0.000366239,12,33,25.87698143,2.972032231,8.83298,25,6,43,46.2877,1.139240911,1.267475547,,129
815,italy_osm,18.1945,10.8169,6686493,6686493,14027956,3.14E-07,1,9,2.097954189,0.408225109,0.166648,2,7,17,20.6597,1.135491495,1.909946473,,130
787,barrier2-11,21.5335,12.4247,115625,115625,3897557,0.000291534,8,8437,33.70860108,28.46078351,810.016,33,8410,33,24.4361,1.134794622,1.966735615,,131
665,debr,28.3399,11.3728,1048576,1048576,4194298,3.81E-06,2,4,3.999994278,0.003088156,9.54E-06,3,0,12,32.1402,1.134097156,2.826058666,,132
733,ecology2,31.7206,12.7303,999999,999999,4995991,5.00E-06,3,5,4.995995996,0.063213701,0.00399597,4,0,5,35.9424,1.133093321,2.823374155,,133
664,debr_G_18,28.4359,11.4598,1048576,1048576,4194298,3.81E-06,2,4,3.999994278,0.003088156,9.54E-06,3,0,18,32.1402,1.130268428,2.80460392,,134
788,barrier2-10,21.6531,12.1612,115625,115625,3897557,0.000291534,8,8437,33.70860108,28.46078351,810.016,33,8410,30,24.4361,1.128526631,2.009349406,,135
862,germany_osm,15.777,8.39496,11548845,11548845,24738362,1.85E-07,1,13,2.14206373,0.52888833,0.279723,2,11,24,17.7336,1.124015973,2.112410303,,136
878,af_shell7,46.9663,57.9927,504855,504855,17588875,6.90E-05,20,40,34.83945885,1.275219987,1.62619,34,5,36,52.6613,1.121257157,0.90806774,,137
899,road_central,7.88885,5.90864,14081816,14081816,33866826,1.71E-07,1,8,2.405004156,0.929259487,0.863523,2,6,12,8.84251,1.120887075,1.496538967,,138
697,nasasrb,39.6641,33.5239,54870,54870,2677324,0.000889265,12,276,48.79394933,8.530636468,72.7718,48,227,228,44.2533,1.115701604,1.320052261,,139
624,bcsstk39,43.0782,45.9369,46772,46772,2089294,0.000955053,12,63,44.66975969,4.953886189,24.541,44,18,53,48.0297,1.114942129,1.045558146,,140
772,t3dh,38.8581,42.4046,79171,79171,4352105,0.000694332,20,81,54.97094896,14.5240721,210.949,54,30,81,43.3045,1.114426593,1.021221754,,141
829,pre2,33.5734,10.7527,659033,659033,5959282,1.37E-05,1,628,9.042463731,22.12165562,489.368,9,622,26,37.3623,1.112854224,3.474690078,,142
898,atmosmodd,35.1891,10.827,1270432,1270432,8814880,5.46E-06,4,7,6.938490214,0.244858112,0.0599555,6,0,7,39.0904,1.110866717,3.610455343,,143
734,ecology1,31.1277,12.2243,1000000,1000000,4996000,5.00E-06,3,5,4.996,0.063182276,0.003992,4,0,5,34.5744,1.110727744,2.828333729,,144
778,t2em,32.2164,28.269,921632,921632,4590832,5.40E-06,1,5,4.981198569,0.273591353,0.0748522,4,0,9,35.7263,1.108947617,1.2637978,,145
901,TSOPF_RS_b678_c2,43.9097,37.9254,35696,35696,8781949,0.006892104,2,512,246.0205345,253.610815,64318.4,246,508,488,48.6535,1.108035354,1.282873747,,146
545,citationCiteseer,7.63463,5.99023,268495,268495,2313294,3.21E-05,1,1318,8.615780555,16.28247531,265.119,8,1314,20,8.45811,1.107861154,1.411984181,,147
859,SiO2,35.9347,16.9088,155331,155331,11283503,0.000467657,15,2749,72.64166844,294.1689725,86535.4,72,2713,53,39.8007,1.107584034,2.353845335,,148
729,venkat01,40.8998,37.0878,62424,62424,1717792,0.000440826,16,44,27.51813405,2.293703779,5.26108,27,16,49,45.2051,1.105264573,1.218867121,,149
654,pkustk10,37.3072,41.2175,80676,80676,4308984,0.000662043,30,90,53.41097724,6.569251116,43.1551,53,36,55,41.2343,1.105263863,1.000407594,,150
937,CoupCons3D,47.5956,53.191,416800,416800,22322336,0.000128494,20,76,53.55646833,8.72078162,76.052,53,24,71,52.5231,1.103528477,0.987443364,,151
690,engine,29.413,16.0319,143571,143571,4706073,0.00022831,9,159,32.77871576,16.87915761,284.906,32,132,27,32.4557,1.103447455,2.024445013,,152
709,NACA0015,7.86074,7.59146,1039183,1039183,6229636,5.77E-06,3,10,5.994743948,0.856599255,0.733762,5,4,6,8.65828,1.101458641,1.140528963,,153
591,net150,30.1565,15.9834,43520,43520,3121200,0.001647949,3,281,71.71875,74.77904301,5591.91,71,212,80,33.2043,1.101066105,2.077424077,,154
810,para-8,23.5494,22.2003,155924,155924,5416358,0.000222783,8,6931,34.73716682,22.278156,496.316,34,6903,35,25.8537,1.097849627,1.164565344,,155
789,barrier2-9,22.3998,12.2915,115625,115625,3897557,0.000291534,8,8437,33.70860108,28.46078351,810.016,33,8410,30,24.5903,1.097791052,2.000593906,,156
816,para-4,23.5154,20.6772,153226,153226,5326228,0.000226858,10,5776,34.76060199,19.88599174,395.453,34,5749,37,25.7929,1.096851425,1.247407773,,157
679,mac_econ_fwd500,27.9866,33.6338,206500,206500,1273389,2.99E-05,1,44,6.166532688,4.435865332,19.6769,6,40,46,30.6841,1.096385413,0.912299532,,158
909,af_1_k101,48.8877,53.733,503625,503625,17550675,6.92E-05,15,35,34.84869695,1.256580165,1.57899,34,0,45,53.5898,1.096181657,0.997334971,,159
877,af_shell8,47.9261,59.4211,504855,504855,17588875,6.90E-05,20,40,34.83945885,1.275219987,1.62619,34,5,35,52.5041,1.095522064,0.883593538,,160
669,Stanford,5.51909,2.60744,281903,281903,2312497,2.91E-05,0,38606,8.203165628,166.3316431,27666.2,8,38604,5,6.04574,1.09542334,2.31864971,,161
538,dawson5,29.2979,29.1045,51537,51537,1010777,0.000380555,1,33,19.61264722,5.323138449,28.3358,19,15,42,32.0882,1.095238908,1.102516793,,162
663,crystk03,43.239,65.7731,24696,24696,1751178,0.00287129,24,81,70.90937804,14.16240602,200.574,70,0,84,47.3291,1.094592844,0.719581409,,163
472,denormal,33.035,30.7561,89400,89400,1156224,0.000144666,6,13,12.93315436,0.473840637,0.224525,12,0,19,36.132,1.093749054,1.174791342,,164
730,venkat50,41.8974,31.7896,62424,62424,1717792,0.000440826,16,44,27.51813405,2.293703779,5.26108,27,16,44,45.8078,1.093332761,1.440968115,,165
866,asia_osm,18.9302,10.5219,11950757,11950757,25423206,1.78E-07,1,9,2.127330177,0.484831571,0.235062,2,7,12,20.6945,1.093200283,1.966802574,,166
696,mc2depi,32.3112,24.3153,525825,525825,2100225,7.60E-06,2,4,3.994152047,0.076322771,0.00582517,3,0,4,35.2979,1.09243544,1.45167446,,167
911,Ga41As41H72,39.0464,35.8634,268096,268096,18488476,0.000257229,18,702,68.96214789,105.3875532,11106.5,68,665,73,42.6493,1.092272271,1.189215189,,168
882,af_shell3,48.1887,53.0608,504855,504855,17588875,6.90E-05,20,40,34.83945885,1.275219987,1.62619,34,5,36,52.5826,1.091181128,0.990987697,,169
906,af_2_k101,49.1616,54.6272,503625,503625,17550675,6.92E-05,15,35,34.84869695,1.256580165,1.57899,34,0,35,53.5898,1.090074367,0.98100946,,170
721,filter3D,31.8492,42.31,106437,106437,2707179,0.000238964,8,112,25.43456693,12.67557696,160.67,25,93,120,34.7074,1.089741658,0.820311983,,171
958,nlpkkt120,47.2188,53.5547,3542400,3542400,96845792,7.72E-06,5,28,27.33903342,3.092774656,9.56526,27,0,28,51.4453,1.08950884,0.960612234,,172
818,crankseg_1,41.8707,32.3733,52804,52804,10614210,0.003806747,48,2703,201.0114764,88.66417828,7861.34,201,2538,222,45.5545,1.087980378,1.407162693,,173
894,PR02R,44.1247,18.7555,161070,161070,8185136,0.000315498,1,92,50.81725958,19.6982847,388.022,50,50,77,48.0067,1.087977935,2.559606515,,174
773,fcondp2,45.45,52.0187,201822,201822,11294316,0.000277283,27,96,55.96176829,9.517389079,90.5807,55,42,54,49.4281,1.087526953,0.950198679,,175
879,af_shell6,48.6553,58.5558,504855,504855,17588875,6.90E-05,20,40,34.83945885,1.275219987,1.62619,34,5,36,52.8989,1.087217631,0.903393003,,176
716,amazon0601,11.9065,14.693,403394,403394,3387388,2.08E-05,0,10,8.397219592,2.789677399,7.7823,8,0,13,12.929,1.085877462,0.87994283,,177
967,Cube_Coup_dt6,48.175,55.2041,2164760,2164760,127206144,2.71E-05,24,68,58.76223877,4.471619519,19.9954,58,8,86,52.2944,1.085509081,0.947291958,,178
908,af_0_k101,49.2305,60.3823,503625,503625,17550675,6.92E-05,15,35,34.84869695,1.256580165,1.57899,34,0,52,53.4267,1.085235779,0.884807303,,179
588,Linux_call_graph,13.4323,13.5663,324085,324085,1208908,1.15E-05,0,712,3.730218924,5.450264334,29.7054,3,711,3,14.5652,1.084341475,1.073630983,,180
808,para-9,23.704,22.3338,155924,155924,5416358,0.000222783,8,6931,34.73716682,22.278156,496.316,34,6903,35,25.6699,1.08293537,1.149374491,,181
893,nlpkkt80,46.2979,55.1242,1062400,1062400,28704672,2.54E-05,5,28,27.01870482,3.735116586,13.9511,27,0,28,50.0954,1.082023159,0.908773279,,182
809,para-10,23.756,22.2003,155924,155924,5416358,0.000222783,8,6931,34.73716682,22.278156,496.316,34,6903,35,25.6699,1.08056491,1.156286176,,183
927,Emilia_923,45.8928,51.4458,923136,923136,41005206,4.81E-05,15,57,44.41946365,3.720735676,13.8439,44,12,58,49.5531,1.079757609,0.963209825,,184
943,channel-500x100x100-b050,44.8334,16.7592,4802000,4802000,85362744,3.70E-06,6,18,17.77649813,1.043258167,1.08839,17,0,34,48.3916,1.079364938,2.887464795,,185
870,rgg_n_2_21_s0,36.3563,6.79789,2097152,2097152,28975990,6.59E-06,0,37,13.81682873,3.73263988,13.9326,13,24,27,39.2363,1.079215982,5.771835084,,186
897,atmosmodj,36.4251,10.6329,1270432,1270432,8814880,5.46E-06,4,7,6.938490214,0.244858112,0.0599555,6,0,9,39.2645,1.077951742,3.692736695,,187
883,af_shell1,48.858,59.7153,504855,504855,17588875,6.90E-05,20,40,34.83945885,1.275219987,1.62619,34,5,36,52.6613,1.077843956,0.88187282,,188
782,barrier2-2,22.6492,13.8206,113076,113076,3805068,0.000297592,10,7031,33.65053592,24.93580363,621.794,33,7004,25,24.3915,1.076925454,1.764865491,,189
458,G2_circuit,20.7621,23.6966,150102,150102,726674,3.23E-05,2,6,4.841201316,0.639641265,0.409141,4,1,6,22.3592,1.076923818,0.943561524,,190
919,hugetrace-00020,8.68185,11.966,16002413,16002413,47997626,1.87E-07,2,3,2.999399278,0.024502266,0.000600361,2,0,21,9.31812,1.073287375,0.778716363,,191
891,packing-500x100x100-b050,43.6116,16.3679,2145852,2145852,34976486,7.60E-06,0,18,16.29957984,2.82958054,8.00653,16,0,29,46.7913,1.072909501,2.858723477,,192
205,cont-201,14.8744,14.2299,80595,80595,438795,6.76E-05,2,6,5.444444444,0.640216013,0.409877,5,1,9,15.9562,1.072728984,1.121314978,,193
886,cage13,31.6921,15.929,445315,445315,7479343,3.77E-05,3,39,16.79562332,5.128391702,26.3004,16,24,20,33.997,1.072727904,2.134283383,,194
659,thermomech_dM,13.6838,16.0338,204316,204316,1423116,3.41E-05,4,10,6.965269485,0.715239905,0.511568,6,3,8,14.6713,1.072165627,0.915023263,,195
849,pwtk,47.3907,52.3282,217918,217918,11634424,0.000244996,2,180,53.38899953,4.743895102,22.5045,53,126,60,50.8053,1.072052111,0.970897145,,196
746,gearbox,44.9525,35.7913,153746,153746,9080404,0.000384147,6,99,59.06107476,15.40949941,237.453,59,45,81,48.1719,1.071617819,1.345910878,,197
781,barrier2-3,23.061,15.5174,113076,113076,3805068,0.000297592,10,7031,33.65053592,24.93580363,621.794,33,7004,33,24.7082,1.071427952,1.592289945,,198
783,barrier2-1,22.9913,15.4258,113076,113076,3805068,0.000297592,10,7031,33.65053592,24.93580363,621.794,33,7004,30,24.6283,1.071200846,1.596565494,,199
819,bmw7st_1,42.182,37.593,141347,141347,7339667,0.00036737,1,435,51.92658493,12.72436502,161.909,51,382,75,45.1672,1.070769523,1.201478999,,200
881,af_shell4,49.1309,60.0124,504855,504855,17588875,6.90E-05,20,40,34.83945885,1.275219987,1.62619,34,5,35,52.5826,1.070255175,0.876195586,,201
823,laminar_duct3D,33.4767,39.5964,67173,67173,3833077,0.00084949,1,89,57.06276331,37.89558717,1436.08,57,65,77,35.8231,1.070090541,0.904705983,,202
957,europe_osm,17.0883,21.0012,50912018,50912018,108109320,4.17E-08,1,13,2.123453838,0.479637486,0.230052,2,11,25,18.2694,1.069117466,0.869921719,,203
913,kron_g500-logn19,6.67621,4.79254,524288,524288,43562265,0.000158479,0,80675,83.08842659,540.9137137,292588,83,80673,67,7.1285,1.067746521,1.487415859,,204
366,debr_G_16,26.5461,22.795,262144,262144,1048570,1.53E-05,2,4,3.999977112,0.006176281,3.81E-05,3,0,10,28.3397,1.06756548,1.243241939,,205
807,para-5,24.2343,21.895,155924,155924,5416358,0.000222783,8,6931,34.73716682,22.278156,496.316,34,6903,35,25.7922,1.064284918,1.177994976,,206
666,gas_sensor,41.0449,35.4056,66917,66917,1703365,0.000380395,8,33,25.45489188,3.514235716,12.3499,25,6,33,43.676,1.06410297,1.233590167,,207
805,para-7,24.1263,22.3338,155924,155924,5416358,0.000222783,8,6931,34.73716682,22.278156,496.316,34,6903,36,25.6699,1.063979972,1.149374491,,208
905,af_4_k101,50.2165,54.1358,503625,503625,17550675,6.92E-05,15,35,34.84869695,1.256580165,1.57899,34,0,35,53.4267,1.063927195,0.986901459,,209
804,Ga10As10H30,36.7305,31.1436,113081,113081,6115633,0.000478258,7,698,54.08187936,82.37707679,6785.98,54,662,70,39.0775,1.063897851,1.25475218,,210
604,3dtube,38.4864,35.0425,45330,45330,3213618,0.00156395,10,2364,70.89384514,39.73103017,1578.55,70,2295,84,40.9378,1.063695227,1.16823286,,211
678,torso2,30.8499,29.0997,115967,115967,1033473,7.68E-05,5,10,8.911785249,0.587506078,0.345163,8,1,11,32.8087,1.063494533,1.127458359,,212
752,cage12,30.3364,20.1187,130228,130228,2032536,0.000119848,5,33,15.60751912,4.709177055,22.1763,15,19,43,32.2625,1.063491383,1.603607589,,213
785,troll,47.372,55.448,213453,213453,11985111,0.00026305,15,387,56.14871189,12.88792785,166.099,56,333,342,50.3576,1.063024571,0.908195066,,214
884,af_shell2,49.407,53.8504,504855,504855,17588875,6.90E-05,20,40,34.83945885,1.275219987,1.62619,34,5,36,52.5041,1.062685449,0.974999257,,215
473,dblp-2010,15.8373,9.40235,326186,326186,1615400,1.52E-05,0,238,4.952389128,7.669921863,58.8277,4,236,10,16.8271,1.062498027,1.789669604,,216
875,TSOPF_RS_b2052_c1,37.7715,32.1646,25626,25626,6761100,0.010295696,2,635,263.8375088,310.4750537,96394.8,263,631,630,40.1252,1.062314179,1.247495694,,217
291,fe_ocean,23.7445,24.3702,143437,143437,819186,3.98E-05,1,6,5.711120562,0.668328464,0.446663,5,0,23,25.2057,1.061538462,1.034283674,,218
880,af_shell5,49.6861,59.2266,504855,504855,17588875,6.90E-05,20,40,34.83945885,1.275219987,1.62619,34,5,36,52.7403,1.061469908,0.89048333,,219
888,CurlCurl_3,38.5338,15.6318,1219574,1219574,13544618,9.11E-06,4,13,11.10602391,0.885541766,0.784184,11,2,11,40.8586,1.060331449,2.613812869,,220
847,kron_g500-logn18,9.18261,6.18682,262144,262144,21165908,0.000308004,0,49163,80.74153137,453.7323043,205873,80,49160,64,9.73369,1.060013438,1.57329452,,221
740,GaAsH6,34.3331,22.3582,61349,61349,3381809,0.000898533,15,1646,55.1241096,134.6005751,18117.3,55,1611,37,36.3635,1.059138266,1.626405525,,222
708,Raj1,23.4678,3.09833,263743,263743,1302464,1.87E-05,1,40468,4.938383199,88.29154131,7795.4,4,40464,28,24.8088,1.057142127,8.00715224,,223
691,vanbody,41.7303,30.9606,47072,47072,2336898,0.001054665,6,232,49.64518185,17.64460132,311.332,49,184,172,44.0924,1.056603954,1.424145527,,224
791,halfb,46.3096,45.3685,224617,224617,12387821,0.000245533,12,120,55.15086124,11.99198367,143.808,55,66,54,48.8671,1.05522613,1.077115179,,225
806,para-6,24.5084,22.2003,155924,155924,5416358,0.000222783,8,6931,34.73716682,22.278156,496.316,34,6903,37,25.8537,1.054891384,1.164565344,,226
349,apache1,18.696,18.8783,80800,80800,542184,8.30E-05,4,7,6.71019802,0.475930522,0.22651,6,0,10,19.7158,1.054546427,1.044363105,,227
207,cvxbqp1,11.8633,13.1137,50000,50000,349968,0.000139987,2,9,6.99936,1.999969897,3.99988,6,4,9,12.4989,1.053576998,0.953117732,,228
946,kron_g500-logn20,5.6953,4.1189,1048576,1048576,89239674,8.12E-05,0,131504,85.1055851,640.9821441,410858,85,131502,66,5.99769,1.053094657,1.456138775,,229
856,Si87H76,36.7642,40.0809,240369,240369,10661631,0.00018453,17,361,44.35526628,39.69121802,1575.39,44,324,61,38.6992,1.052632724,0.965527221,,230
111,usroads-48,10.6197,14.2872,126146,126146,323900,2.04E-05,1,7,2.567659696,0.781714676,0.611078,2,5,8,11.169,1.051724625,0.781748698,,231
660,qa8fk,40.5019,39.6944,66127,66127,1660579,0.000379754,8,27,25.11196637,4.182523752,17.4935,25,0,30,42.5789,1.051281545,1.072667681,,232
793,consph,40.8876,49.7454,83334,83334,6010480,0.000865495,1,81,72.125183,19.08019415,364.054,72,0,73,42.932,1.050000489,0.863034572,,233
925,hugebubbles-00010,7.93521,10.518,19458087,19458087,58359528,1.54E-07,2,3,2.999242834,0.027506228,0.000756593,2,0,19,8.32518,1.049144257,0.791517399,,234
903,hugetrace-00010,9.84332,11.8788,12057441,12057441,36164358,2.49E-07,2,3,2.999339412,0.025693415,0.000660152,2,0,13,10.3253,1.048965187,0.869220797,,235
432,rgg_n_2_17_s0,33.1251,30.2586,131072,131072,1457506,8.48E-05,0,28,11.11988831,3.34422008,11.1838,11,18,28,34.7025,1.047619479,1.146864032,,236
924,CurlCurl_4,43.362,17.267,2380515,2380515,26515867,4.68E-06,4,13,11.13871032,0.855869093,0.732512,11,2,13,45.4039,1.047089618,2.629518735,,237
954,Geo_1438,45.4692,52.9247,1437960,1437960,63156690,3.05E-05,15,57,43.92103396,4.398605269,19.3477,43,12,45,47.5936,1.046721737,0.899270095,,238
646,gupta2,31.4688,8.41044,62064,62064,4248286,0.001102895,3,8413,68.45008378,356.0233759,126753,68,8379,50,32.9324,1.046509559,3.915657207,,239
681,lhr71,33.5844,33.6504,70304,70304,1528092,0.000309164,1,63,21.73549158,26.31874714,692.676,21,58,63,35.1286,1.045979681,1.043928155,,240
743,ASIC_320ks,19.976,13.2684,321671,321671,1827807,1.77E-05,1,412,5.682225006,7.949848467,63.2001,5,409,4,20.8892,1.045714858,1.574357119,,241
852,bmwcra_1,47.0974,53.1664,148770,148770,10644002,0.000480922,24,351,71.54669624,18.50800838,342.546,71,279,99,49.164,1.04387928,0.924719372,,242
917,Fault_639,47.5325,54.2231,638802,638802,28614564,7.01E-05,15,318,44.79410522,5.161216547,26.6382,44,273,301,49.549,1.042423605,0.913798732,,243
596,raefsky4,35.9084,56.1829,19779,19779,1328611,0.003396168,18,177,67.17280955,15.95628815,254.603,67,123,138,37.4257,1.042254737,0.666140409,,244
784,F2,35.178,22.9798,71505,71505,5294285,0.001035463,22,345,74.04076638,37.54850191,1409.89,74,288,84,36.6387,1.041523111,1.594387244,,245
876,af_shell9,50.4702,60.3124,504855,504855,17588875,6.90E-05,20,40,34.83945885,1.275219987,1.62619,34,5,36,52.5041,1.040299028,0.870535744,,246
964,kron_g500-logn21,5.39865,4.0639,2097152,2097152,182082942,4.14E-05,0,213905,86.82391262,755.6414166,570994,86,213903,69,5.61413,1.039913682,1.381463619,,247
814,nd6k,43.6539,27.013,18000,18000,6897316,0.021288012,130,514,383.1842222,89.17285745,7951.8,383,138,395,45.3771,1.039474136,1.679824529,,248
779,fullb,45.8242,49.5105,199187,199187,11708077,0.000295096,18,144,58.77932295,12.66329139,160.359,58,90,112,47.5938,1.03861715,0.961287,,249
723,filter3D_E,33.4215,40.4832,106437,106437,2707145,0.000238961,8,112,25.43424749,12.67499715,160.656,25,93,112,34.707,1.038463265,0.857318591,,250
828,bmw3_2,46.1703,17.5015,227362,227362,11288630,0.000218376,2,336,49.6504693,13.81123835,190.75,49,286,297,47.9347,1.038215043,2.738890952,,251
942,Freescale1,17.1613,12.4058,3428755,3428755,18920347,1.61E-06,1,27,5.518139091,2.074957928,4.30545,5,23,5,17.8074,1.037648663,1.435409244,,252
542,epb3,16.558,17.1326,84617,84617,463625,6.48E-05,3,6,5.479099944,0.549512516,0.301964,5,1,20,17.1713,1.037039498,1.002258852,,253
790,ASIC_320k,15.5479,1.3393,321821,321821,2635364,2.54E-05,1,203800,8.18891247,502.951409,252960,8,203796,11,16.1184,1.036693058,12.03494363,,254
481,nemeth18,16.3584,48.6028,9506,9506,695234,0.007693702,35,82,73.13633495,5.644635445,31.8619,73,8,2,16.9569,1.036586708,0.348887307,,255
174,onera_dual,14.7088,15.296,85567,85567,419201,5.73E-05,3,5,4.899096614,0.304864518,0.0929424,4,0,7,15.2437,1.036365985,0.996580805,,256
961,Long_Coup_dt0,48.0889,53.4293,1470152,1470152,87088992,4.03E-05,20,756,59.23808695,6.66249962,44.3889,59,696,684,49.8221,1.036041581,0.932486482,,257
192,tandem_dual,15.8791,15.4045,94069,94069,460493,5.20E-05,2,5,4.895268367,0.31718915,0.100609,4,0,11,16.4462,1.035713611,1.067623097,,258
321,k1_san,18.9754,17.677,67759,67759,559774,0.000121921,0,11,8.261249428,2.73883066,7.50119,8,3,13,19.6412,1.035087534,1.11111614,,259
940,rajat31,34.0306,12.0309,4690002,4690002,20316253,9.24E-07,1,1252,4.33182182,1.106157847,1.22359,4,1247,22,35.1492,1.032870417,2.921576939,,260
963,audikw_1,41.7371,22.0929,943695,943695,77651847,8.72E-05,21,345,82.28489819,42.44525462,1801.6,82,276,75,43.104,1.032750239,1.951034043,,261
396,olesnik0,23.2568,21.3456,88263,88263,744216,9.55E-05,1,11,8.431800415,2.835215063,8.03844,8,2,11,24.007,1.032257232,1.124681433,,262
948,ML_Laplace,49.1393,57.9298,377002,377002,27689972,0.000194821,26,74,73.44781195,3.524814216,12.4243,73,0,73,50.7142,1.032049704,0.875442346,,263
536,net125,31.4293,12.9723,36720,36720,2577200,0.001911361,3,231,70.18518519,66.6259109,4439.01,70,162,74,32.4176,1.03144518,2.498986302,,264
758,ship_001,39.3579,44.3521,34920,34920,4644230,0.003808599,18,438,132.9962772,55.19944197,3046.98,132,330,138,40.561,1.030568196,0.914522649,,265
658,cop20k_A,21.9609,16.6901,121192,121192,2624331,0.000178678,0,81,21.65432537,13.79266245,190.238,21,59,23,22.6235,1.030171805,1.355504161,,266
713,raefsky3,42.5362,64.254,21200,21200,1488768,0.003312496,32,80,70.22490566,6.326999832,40.0309,70,8,75,43.7873,1.029412594,0.681471971,,267
797,pkustk14,46.0761,43.4447,151926,151926,14836504,0.000642787,12,333,97.65612206,46.50766969,2162.96,97,261,281,47.401,1.028754604,1.091065193,,268
951,Hook_1498,46.8776,53.0744,1498023,1498023,60917445,2.71E-05,15,93,40.66522677,13.95377209,194.708,40,57,79,48.2133,1.028493353,0.908409704,,269
890,Si41Ge41H72,38.9903,25.5625,185639,185639,15011265,0.000435591,13,662,80.86266894,126.9718576,16121.9,80,625,91,40.0835,1.028037743,1.56805868,,270
560,case39_A_05,26.7223,2.17565,40216,40216,1042170,0.000644378,1,20024,25.91431271,316.2263851,99999.1,25,20020,42,27.4255,1.0263151,12.60565808,,271
662,qa8fm,41.5145,38.8024,66127,66127,1660579,0.000379754,8,27,25.11196637,4.182523752,17.4935,25,0,30,42.5789,1.025639234,1.097326454,,272
845,crankseg_2,46.0125,29.7026,63838,63838,14148858,0.003471865,48,3423,221.6369247,95.87570167,9192.15,221,3237,245,47.1629,1.025001902,1.587837428,,273
921,mouse_gene,38.9607,28.0313,45101,45101,28967291,0.014240838,1,8032,642.2760249,856.669034,733882,642,7924,628,39.8998,1.024103776,1.423401697,,274
415,ar2010,21.2779,20.7718,186211,186211,904310,2.61E-05,1,54,4.85637261,2.925281074,8.55727,4,50,59,21.7906,1.024095423,1.049047266,,275
960,Long_Coup_dt6,48.8989,52.2319,1470152,1470152,87088992,4.03E-05,20,756,59.23808695,6.66249962,44.3889,59,696,681,49.922,1.020922761,0.955776068,,276
6,rajat09,4.3091,8.39065,24482,24482,105573,0.00017614,1,92,4.312270239,1.114066547,1.24114,4,87,68,4.39888,1.020834977,0.524259741,,277
275,dixmaanl,11.5384,12.2033,60000,60000,299998,8.33E-05,4,5,4.999966667,0.005773406,3.33E-05,4,0,7,11.7646,1.019604105,0.964050708,,278
251,Ill_Stokes,7.22143,12.8645,20896,20896,191368,0.000438271,3,12,9.158116386,1.644396016,2.70404,9,3,20,7.36031,1.019231648,0.572141164,,279
700,pkustk13,40.102,37.9193,94893,94893,6616827,0.000734821,18,300,69.72934779,32.72291106,1070.79,69,246,270,40.8446,1.01851778,1.077145411,,280
554,lung2,16.4188,14.3339,109460,109460,492564,4.11E-05,2,8,4.499945185,1.939094086,3.76009,4,4,8,16.6971,1.016950082,1.164867901,,281
763,TSOPF_FS_b300_c1,34.6466,6.35942,29214,29214,4400122,0.005155641,1,13942,150.616896,676.2740696,457347,150,13938,168,35.201,1.01600157,5.535253215,,282
874,boneS10_M,44.2332,16.1501,914898,914898,18489474,2.21E-05,4,27,20.20932825,6.791327897,46.1221,20,9,26,44.9319,1.015795828,2.782143764,,283
923,rgg_n_2_22_s0,37.5965,14.3565,4194304,4194304,60718396,3.45E-06,0,36,14.4763937,3.812332421,14.5339,14,23,27,38.1877,1.015724868,2.659958904,,284
55,as-caida_G_105,3.22234,1.68031,31379,31379,104726,0.00010636,0,2685,3.337454986,30.60512,936.673,3,2684,5,3.27269,1.015625291,1.94767037,,285
838,m_t1,46.8922,51.0422,97578,97578,9753570,0.001024377,48,237,99.95665006,28.55769479,815.542,99,159,126,47.5784,1.014633564,0.932138505,,286
372,struct3,33.5341,34.5708,53570,53570,1173694,0.000408989,6,27,21.90953892,4.297551572,18.4689,21,9,27,34.0201,1.01449271,0.984070372,,287
795,ship_003,45.4272,52.4458,121728,121728,8086034,0.000545701,18,144,66.4270669,18.69397749,349.465,66,90,114,46.0743,1.01424477,0.878512674,,288
969,Bump_2911,48.8825,16.6794,2911419,2911419,127729899,1.51E-05,1,195,43.87204281,6.96866872,48.5623,43,150,134,49.4789,1.012200685,2.966467619,,289
803,tmt_sym,33.4274,46.648,726713,726713,5080961,9.62E-06,3,9,6.991702364,1.007603382,1.01526,6,2,8,33.7605,1.009964879,0.723728777,,290
705,amazon0312,11.3491,15.6572,400727,400727,3200440,1.99E-05,0,10,7.986584383,3.071824307,9.4361,7,0,7,11.4506,1.00894344,0.731331273,,291
514,thermomech_TK,12.0603,10.8495,102158,102158,711558,6.82E-05,4,10,6.965269485,0.715239905,0.511568,6,3,9,12.1634,1.008548709,1.121102355,,292
718,pkustk12,42.204,15.7821,94653,94653,7512317,0.000838504,12,4146,79.36691917,148.3910384,22019.9,79,4092,84,42.5627,1.008499194,2.696897118,,293
403,fe_rotor,20.701,17.806,99617,99617,1324862,0.000133507,5,125,13.2995573,3.920173162,15.3678,13,113,128,20.864,1.007874016,1.171739863,,294
755,sme3Db,28.7043,22.4482,29067,29067,2081063,0.002463116,24,345,71.59538308,37.06640814,1373.92,71,288,69,28.9037,1.006946694,1.287573168,,295
939,PFlow_742,50.3231,22.4349,742793,742793,37138461,6.73E-05,1,137,49.99839928,19.97246069,398.899,49,86,84,50.6664,1.006821917,2.258374229,,296
846,CurlCurl_2,38.456,32.8105,806529,806529,8921789,1.37E-05,4,13,11.06195685,0.921613039,0.849371,11,2,11,38.7062,1.006506137,1.179689429,,297
794,shipsec1,45.9612,49.2525,140874,140874,7813404,0.000393712,24,102,55.46377614,11.07481064,122.651,55,48,84,46.2332,1.005918035,0.938697528,,298
647,pkustk04,37.4992,22.6751,55590,55590,4218660,0.001365153,12,4230,75.88882893,110.8879208,12296.1,75,4176,63,37.6666,1.004464095,1.661143722,,299
935,boneS10,49.7475,54.635,914898,914898,55468422,6.63E-05,12,81,60.62798476,20.37398369,415.099,60,27,80,49.8369,1.001797075,0.912179006,,300
467,soc-Slashdot0902,16.0757,5.88933,82168,82168,948464,0.00014048,0,2511,11.5429851,36.91789799,1362.93,11,2509,8,16.0757,1,2.729631384,,301
527,vsp_msc10848_300sep_100in_1Kout,30.1488,18.5966,21996,21996,2442056,0.005047406,1,722,111.0227314,49.29745318,2430.24,111,627,96,30.1488,1,1.621199574,,302
468,rail_79841_E,18.4971,13.0877,79841,79841,554913,8.71E-05,4,11,6.950226074,1.985689835,3.94296,6,6,11,18.4971,1,1.413319376,,303
265,brack2,20.9462,15.6029,62631,62631,733118,0.000186894,3,32,11.70535358,4.873446881,23.7505,11,22,28,20.9462,1,1.342455569,,304
792,Si34H36,37.6378,32.0363,97569,97569,5156379,0.000541653,17,494,52.84853796,68.93474282,4752,52,458,74,37.6378,1,1.174848531,,305
513,ch7-8-b5,25.6582,22.1987,141120,141120,846720,4.25E-05,6,6,6,0,0,6,0,25,25.6582,1,1.155842459,,306
595,bcsstk35,39.7305,49.3467,30237,30237,1450163,0.001586132,5,222,47.95988359,14.23279856,202.573,47,174,188,39.7305,1,0.805129826,,307
81,luxembourg_osm,8.70298,10.8902,114599,114599,239332,1.82E-05,1,6,2.088430091,0.411208776,0.169093,2,4,17,8.70298,1,0.79915704,,308
447,lhr17c,13.89,25.7775,17576,17576,381975,0.001236502,1,63,21.73276058,26.32063916,692.776,21,58,63,13.89,1,0.538842013,,309
930,wikipedia-20060925,7.91696,1.9464,2983494,2983494,37269096,4.19E-06,0,5852,12.49176167,32.8748034,1080.75,12,5851,2,7.90269,0.99819754,4.060157213,,310
865,BenElechi1,48.8866,52.126,245874,245874,13150496,0.000217529,1,54,53.48469541,2.995068565,8.97044,53,0,53,48.7055,0.996295508,0.934380156,,311
839,x104,47.6235,48.5863,108384,108384,10167624,0.000865544,30,324,93.81111603,29.20375597,852.859,93,246,108,47.4015,0.995338436,0.975614525,,312
817,shipsec5,47.9294,53.3314,179860,179860,10113096,0.000312619,12,126,56.22759924,12.0811397,145.954,56,72,54,47.7033,0.995282645,0.8944693,,313
774,shipsec8,43.2039,46.3583,114919,114919,6653399,0.000503802,15,132,57.8964227,14.29566848,204.366,57,78,60,42.9252,0.993549193,0.925944221,,314
936,inline_1,40.4353,24.4241,503712,503712,36816342,0.000145103,18,843,73.09006337,35.63205523,1269.64,73,786,54,40.1706,0.99345374,1.644711576,,315
956,Serena,47.8013,51.0043,1391349,1391349,64531701,3.33E-05,15,249,46.38067156,9.245936266,85.4873,46,204,218,47.4847,0.993376749,0.930994053,,316
634,fl2010,16.3505,14.8988,484481,484481,2346294,1.00E-05,1,177,4.842901992,3.480659908,12.115,4,173,156,16.2373,0.993076664,1.08983945,,317
920,F1,32.2368,15.4657,343791,343791,26837113,0.000227063,24,435,78.06229075,40.80912077,1665.38,78,366,61,31.968,0.991661703,2.067025741,,318
947,bone010,51.2268,54.7911,986703,986703,71666325,7.36E-05,12,81,72.63211422,15.81042955,249.97,72,0,80,50.7912,0.991496638,0.926997268,,319
941,wikipedia-20070206,7.82457,1.79917,3566907,3566907,45030389,3.54E-06,0,7061,12.62449203,32.97536673,1087.37,12,7060,2,7.75317,0.990874898,4.309303734,,320
732,pattern1,44.0824,39.2549,19242,19242,9323432,0.02518114,9,6028,484.5354953,379.7426048,144204,484,5270,5272,43.6695,0.99063345,1.112459846,,321
58,as-caida_G_104,3.22535,1.76887,31379,31379,104824,0.000106459,0,2639,3.340578094,30.35307345,921.309,3,2638,5,3.17648,0.984848156,1.79576792,,322
523,wave,33.1041,22.0872,156317,156317,2118662,8.67E-05,3,44,13.55362501,3.320093681,11.023,13,33,59,32.5948,0.984615199,1.475732551,,323
744,smt,39.3004,46.9428,25710,25710,3753184,0.005678004,52,414,145.9814858,47.51734977,2257.9,145,261,154,38.6926,0.984534509,0.824249938,,324
286,tube1,29.9019,43.7407,21498,21498,897056,0.001940991,28,48,41.7274165,5.243812105,27.4976,41,6,50,29.4117,0.983606393,0.672410364,,325
450,ecl32,13.1178,14.1773,51993,51993,380415,0.000140724,1,23,7.316658012,3.35036484,11.2249,7,15,37,12.8954,0.983045938,0.909580809,,326
486,soc-sign-epinions,10.9269,2.88783,131828,131828,841372,4.84E-05,0,2070,6.382346694,32.94679258,1085.49,6,2069,4,10.7181,0.980891195,3.711471936,,327
966,Flan_1565,52.1573,49.2225,1564794,1564794,117406044,4.79E-05,24,81,75.02971254,11.43169825,130.684,75,0,80,51.1462,0.980614411,1.039081721,,328
213,wang4,7.23249,11.6151,26068,26068,177196,0.000260759,4,7,6.797452816,0.436137601,0.190216,6,0,10,7.08784,0.979999972,0.610226343,,329
322,chem_master1,8.38337,13.0596,40401,40401,201201,0.000123267,3,5,4.980099502,0.140365532,0.0197025,4,0,13,8.21229,0.979592932,0.628831664,,330
100,obstclae,8.23367,11.3147,40000,40000,197608,0.000123505,1,5,4.9402,0.419790376,0.176224,4,0,5,8.06563,0.979591118,0.712845237,,331
101,torsion1,8.23367,11.3147,40000,40000,197608,0.000123505,1,5,4.9402,0.419790376,0.176224,4,0,5,8.06563,0.979591118,0.712845237,,332
766,TSOPF_FS_b300,35.4849,6.36399,29214,29214,4400122,0.005155641,1,13942,150.616896,676.2740696,457347,150,13938,175,34.6466,0.976375867,5.444163174,,333
750,rma10,41.287,37.5323,46835,46835,2374001,0.001082281,4,145,50.68860895,27.78059606,771.762,50,113,141,40.2373,0.974575532,1.072071256,,334
841,as-Skitter,13.1111,1.45444,1696415,1696415,22190596,7.71E-06,1,35455,13.08087703,136.8605978,18730.8,13,35451,7,12.7752,0.974380487,8.78358681,,335
304,fe_tooth,25.1439,23.4123,78136,78136,905182,0.000148263,3,39,11.58469847,4.98665346,24.8667,11,30,31,24.4644,0.972975553,1.044937917,,336
648,windscreen_M,41.7461,59.0071,22692,22692,1481988,0.002878055,24,81,65.30883131,14.75759791,217.787,65,27,83,40.6024,0.972603429,0.688093467,,337
857,Chebyshev4,32.6916,2.1645,68121,68121,5377761,0.001158883,9,68121,78.94424627,1061.43997,1126650,78,68096,66,31.7272,0.970500067,14.65798106,,338
864,rajat30,27.2043,1.34319,643994,643994,6175377,1.49E-05,1,454746,9.589184061,784.5798569,615566,9,454740,19,26.3905,0.970085611,19.6476299,,339
912,bundle_adj,40.5377,2.28789,513351,513351,20208051,7.67E-05,3,12588,39.36497835,250.7660938,62883.6,39,12573,21,39.3153,0.969845354,17.18408665,,340
626,ibm_matrix_2,33.0191,8.5896,51448,51448,1056610,0.000399188,12,5671,20.53743586,28.40330925,806.748,20,5650,42,32.0185,0.969696327,3.727589178,,341
719,std1_Jac3,30.9755,16.7935,21982,21982,1455848,0.003012879,1,1030,66.22909653,169.2962482,28661.2,66,1028,59,30.0175,0.969072331,1.787447524,,342
944,ldoor,45.8124,48.767,952203,952203,46522475,5.13E-05,28,77,48.85772782,11.94657153,142.721,48,35,74,44.3917,0.968988745,0.910281543,,343
915,human_gene1,47.9954,32.2559,22283,22283,24669643,0.049683885,1,7939,1107.106,1409.121606,1985620,1107,7606,1100,46.5026,0.968897019,1.441677337,,344
530,nc2010,22.8487,21.4542,288987,288987,1416620,1.70E-05,1,83,4.902019814,3.104078102,9.6353,4,79,75,22.1347,0.968750957,1.031718731,,345
465,thermal1,18.5309,18.2531,82654,82654,574458,8.41E-05,1,11,6.950153653,0.876772653,0.76873,6,4,13,17.9518,0.968749494,0.983493215,,346
292,pcrystk02,31.7568,51.7131,13965,13965,968583,0.004966552,24,81,69.35789474,14.83059427,219.947,69,27,91,30.7487,0.968255618,0.594601755,,347
597,LeGresley_87936,19.4517,17.6938,87936,87936,593276,7.67E-05,1,56,6.746679403,3.338641545,11.1465,6,50,49,18.8342,0.968254703,1.064451955,,348
685,ca2010,14.0417,18.2191,710145,710145,3489366,6.92E-06,1,141,4.913596519,2.900027658,8.41016,4,137,117,13.5773,0.966927081,0.745223419,,349
191,debr_G_15,18.3959,18.4607,131072,131072,524282,3.05E-05,2,4,3.999954224,0.008734521,7.63E-05,3,0,12,17.7723,0.966101142,0.962709973,,350
751,wiki-Talk,4.45753,0.116726,2394385,2394385,5021410,8.76E-07,0,100022,2.097160649,99.91501522,9983.01,2,100022,2,4.30468,0.965709709,36.87850179,,351
695,TSOPF_FS_b162_c4,34.2603,2.65544,40798,40798,2398220,0.001440825,1,20054,58.78278347,495.4621955,245483,58,20050,67,33.0789,0.965516939,12.4570316,,352
599,pkustk08,38.8756,23.7145,22209,22209,3226671,0.006541791,39,267,145.2866406,61.53694052,3786.8,145,141,167,37.5194,0.965114365,1.582129077,,353
799,Ga3As3H12,36.7443,31.3366,61349,61349,5970947,0.001586457,15,1622,97.3275359,224.6598233,50472,97,1587,114,35.4359,0.964391756,1.130815085,,354
,,,,,,,,,,,,,,,,,,,,
,,,,,,,,,,,,,,,,,1.123287837,2.494633904,,