# Fdb version 3
["pdflatex"] 1556248720 "aspmv_formats.tex" "aspmv_formats.pdf" "aspmv_formats" 1556248720
  "/usr/local/texlive/2017/texmf-dist/fonts/map/fontname/texfonts.map" 1480098670 3287 e6b82fe08f5336d4d5ebc73fb1152e87 ""
  "/usr/local/texlive/2017/texmf-dist/fonts/tfm/public/cm/cmbx10.tfm" 1480098701 1328 c834bbb027764024c09d3d2bf908b5f0 ""
  "/usr/local/texlive/2017/texmf-dist/fonts/tfm/public/cm/cmtt10.tfm" 1480098701 768 1321e9409b4137d6fb428ac9dc956269 ""
  "/usr/local/texlive/2017/texmf-dist/web2c/texmf.cnf" 1494087824 32646 eadc4ca26cdbe7105ac7c593aa8c4f72 ""
  "/usr/local/texlive/2017/texmf-var/web2c/pdftex/pdflatex.fmt" 1511829803 4129593 ba9575cce6838d1bf1be2420416f9d13 ""
  "/usr/local/texlive/2017/texmf.cnf" 1495593465 577 2b71d4d888f9e5560b2e99985915a9fa ""
  "aspmv_formats.aux" 1556118033 8 a94a2480d3289e625eea47cd1b285758 ""
  "aspmv_formats.tex" 1556248335 3440 f6d12f79683cddf7fc00da8875ae1d10 ""
  (generated)
  "aspmv_formats.pdf"
  "aspmv_formats.log"
